-------------------------------------------------------------------------------
Test set: io.toro.jeraldjoe.taskNote.TaskNoteApplicationTests
-------------------------------------------------------------------------------
Tests run: 1, Failures: 0, Errors: 0, Skipped: 0, Time elapsed: 20.399 sec - in io.toro.jeraldjoe.taskNote.TaskNoteApplicationTests
